Covid ’19 Analysis
…
global %>% filter(cases > 28000000, country_region == "US")

## # A tibble: 751 × 5
##    province_state country_region date          cases deaths
##    <chr>          <chr>          <date>        <dbl>  <dbl>
##  1 <NA>           US             2021-02-17 28009004 489731
##  2 <NA>           US             2021-02-18 28081254 492289
##  3 <NA>           US             2021-02-19 28156128 494810
##  4 <NA>           US             2021-02-20 28229709 496711
##  5 <NA>           US             2021-02-21 28284962 497922
##  6 <NA>           US             2021-02-22 28341018 499127
##  7 <NA>           US             2021-02-23 28414848 501384
##  8 <NA>           US             2021-02-24 28489829 504596
##  9 <NA>           US             2021-02-25 28566889 507105
## 10 <NA>           US             2021-02-26 28641812 509227
## # ℹ 741 more rows
…
us <- us_cases %>% 
  full_join(us_deaths) %>% 
  clean_names()

## Joining with `by = join_by(Admin2, Province_State, Country_Region,
## Combined_Key, date)`

us

## # A tibble: 3,819,906 × 8
##    admin2 province_state country_region combined_key date       cases population
##    <chr>  <chr>          <chr>          <chr>        <date>     <dbl>      <dbl>
##  1 Autau… Alabama        US             Autauga, Al… 2020-01-22     0      55869
##  2 Autau… Alabama        US             Autauga, Al… 2020-01-23     0      55869
##  3 Autau… Alabama        US             Autauga, Al… 2020-01-24     0      55869
##  4 Autau… Alabama        US             Autauga, Al… 2020-01-25     0      55869
##  5 Autau… Alabama        US             Autauga, Al… 2020-01-26     0      55869
##  6 Autau… Alabama        US             Autauga, Al… 2020-01-27     0      55869
##  7 Autau… Alabama        US             Autauga, Al… 2020-01-28     0      55869
##  8 Autau… Alabama        US             Autauga, Al… 2020-01-29     0      55869
##  9 Autau… Alabama        US             Autauga, Al… 2020-01-30     0      55869
## 10 Autau… Alabama        US             Autauga, Al… 2020-01-31     0      55869
## # ℹ 3,819,896 more rows
## # ℹ 1 more variable: deaths <dbl>
…
us_by_state <- us %>% 
  group_by(province_state, country_region, date) %>% 
  summarise(cases = sum(cases),
            deaths = sum(deaths),
            population = sum(population)) %>% 
  mutate(deaths_per_mill = deaths*1000000/population) %>% 
  ungroup()

## `summarise()` has grouped output by 'province_state', 'country_region'. You can
## override using the `.groups` argument.

us_by_state

## # A tibble: 66,294 × 7
##    province_state country_region date       cases deaths population
##    <chr>          <chr>          <date>     <dbl>  <dbl>      <dbl>
##  1 Alabama        US             2020-01-22     0      0    4903185
##  2 Alabama        US             2020-01-23     0      0    4903185
##  3 Alabama        US             2020-01-24     0      0    4903185
##  4 Alabama        US             2020-01-25     0      0    4903185
##  5 Alabama        US             2020-01-26     0      0    4903185
##  6 Alabama        US             2020-01-27     0      0    4903185
##  7 Alabama        US             2020-01-28     0      0    4903185
##  8 Alabama        US             2020-01-29     0      0    4903185
##  9 Alabama        US             2020-01-30     0      0    4903185
## 10 Alabama        US             2020-01-31     0      0    4903185
## # ℹ 66,284 more rows
## # ℹ 1 more variable: deaths_per_mill <dbl>
…
cr_monthly <- cr %>% 
  group_by(month = floor_date(date, unit = "month")) %>% 
  summarize(cases = sum(cases),
            new_cases = sum(new_cases),
            deaths = sum(deaths),
            new_deaths = sum(new_deaths),
            population = max(population)) %>% 
  ungroup()

cr_monthly

## # A tibble: 37 × 6
##    month        cases new_cases deaths new_deaths population
##    <date>       <dbl>     <dbl>  <dbl>      <dbl>      <dbl>
##  1 2020-03-01    2987        NA     24         NA    5094114
##  2 2020-04-01   17866       372    122          4    5094114
##  3 2020-05-01   26697       337    260          4    5094114
##  4 2020-06-01   58319      2403    356          6    5094114
##  5 2020-07-01  309536     14361   1823        134    5094114
##  6 2020-08-01  890542     23467   9155        286    5094114
##  7 2020-09-01 1771225     34473  19556        468    5094114
##  8 2020-10-01 2901099     34211  35904        481    5094114
##  9 2020-11-01 3734891     29667  46733        341    5094114
## 10 2020-12-01 4796194     29683  60628        459    5094114
## # ℹ 27 more rows
…
